G04 Generated by Ultiboard 12.0 *
%FSLAX25Y25*%
%MOIN*%

%ADD10C,0.00001*%
%ADD11C,0.00100*%
%ADD12C,0.01000*%
%ADD13C,0.03000*%
%ADD14C,0.08000*%
%ADD15C,0.04000*%
%ADD16C,0.07337*%
%ADD17C,0.10000*%
%ADD18C,0.07000*%
%ADD19R,0.07000X0.07000*%


G04 ColorRGB 0000FF for the following layer *
%LNCopper Bottom*%
%LPD*%
G54D10*
G36*
X178474Y170705D02*
G74*
D01*
G03X172345Y187016I24769J0*
G01*
G75*
D01*
G02X167798Y191074I-10345J-7015*
G01*
G74*
D01*
G03X153705Y195474I14093J20369*
G01*
G75*
D01*
G02X153441Y195488I2J2526*
G01*
X153441Y195488D01*
X91196Y195488D01*
X91962Y194722D01*
X93839Y192845D01*
G74*
D01*
G02X95019Y190000I2839J2845*
G01*
X95019Y190000D01*
X95019Y189455D01*
G74*
D01*
G02X95135Y189347I4029J4444*
G01*
G75*
D01*
G02X97500Y191012I2365J-847*
G01*
X97500Y191012D01*
X104500Y191012D01*
G74*
D01*
G02X107012Y188500I0J2512*
G01*
X107012Y188500D01*
X107012Y181500D01*
G75*
D01*
G02X104500Y178988I-2512J0*
G01*
X104500Y178988D01*
X97500Y178988D01*
G75*
D01*
G02X95135Y180653I0J2512*
G01*
G75*
D01*
G02X86000Y181683I-4136J4346*
G01*
G75*
D01*
G02X76000Y181683I-5000J3317*
G01*
G75*
D01*
G02X66000Y181683I-5000J3317*
G01*
G75*
D01*
G02X56000Y181683I-5000J3317*
G01*
G75*
D01*
G02X46000Y181683I-5000J3317*
G01*
G75*
D01*
G02X36000Y181683I-5000J3317*
G01*
G75*
D01*
G02X25871Y181886I-5000J3317*
G01*
X25871Y181886D01*
X22987Y184771D01*
G74*
D01*
G02X21229Y183013I1987J229*
G01*
X21229Y183013D01*
X24272Y179971D01*
G75*
D01*
G02X17728Y179971I-3272J5028*
G01*
X17728Y179971D01*
X20771Y183013D01*
G74*
D01*
G02X19013Y184771I229J1987*
G01*
X19013Y184771D01*
X15971Y181728D01*
G75*
D01*
G02X15971Y188272I5028J3272*
G01*
X15971Y188272D01*
X19013Y185229D01*
G74*
D01*
G02X20771Y186987I1987J229*
G01*
X20771Y186987D01*
X17728Y190029D01*
G75*
D01*
G02X24272Y190029I3272J-5028*
G01*
X24272Y190029D01*
X21229Y186987D01*
G74*
D01*
G02X22987Y185229I229J1987*
G01*
X22987Y185229D01*
X25871Y188114D01*
G75*
D01*
G02X36000Y188317I5129J-3114*
G01*
G74*
D01*
G02X36989Y189462I4999J3318*
G01*
G74*
D01*
G02X38158Y192042I4010J262*
G01*
X38158Y192042D01*
X41604Y195488D01*
X27559Y195488D01*
G74*
D01*
G02X27295Y195474I266J2511*
G01*
G75*
D01*
G03X2526Y170705I0J-24769*
G01*
G75*
D01*
G02X2512Y170441I-2526J2*
G01*
X2512Y170441D01*
X2512Y27559D01*
G74*
D01*
G02X2526Y27295I2511J266*
G01*
G75*
D01*
G03X27295Y2526I24769J0*
G01*
G74*
D01*
G02X27559Y2512I2J2526*
G01*
X27559Y2512D01*
X28525Y2512D01*
G75*
D01*
G02X31475Y2512I1475J17488*
G01*
X31475Y2512D01*
X128525Y2512D01*
G75*
D01*
G02X131475Y2512I1475J17488*
G01*
X131475Y2512D01*
X153441Y2512D01*
G75*
D01*
G02X153705Y2526I266J-2511*
G01*
G75*
D01*
G03X178474Y27295I0J24769*
G01*
G74*
D01*
G02X178488Y27559I2526J2*
G01*
X178488Y27559D01*
X178488Y122157D01*
G75*
D01*
G02X172492Y121264I-3488J2842*
G01*
G75*
D01*
G02X163727Y119589I-4491J-270*
G01*
X163727Y119589D01*
X163335Y119981D01*
X162099Y119981D01*
G75*
D01*
G02X157976Y111981I-2075J-3993*
G01*
X157976Y111981D01*
X107004Y111981D01*
G75*
D01*
G02X104158Y113158I-4J4019*
G01*
X104158Y113158D01*
X91962Y125354D01*
X78158Y139158D01*
G75*
D01*
G02X76981Y142005I2842J2842*
G01*
X76981Y142005D01*
X76981Y150545D01*
G74*
D01*
G02X76000Y151683I4018J4455*
G01*
G75*
D01*
G02X66000Y151683I-5000J3317*
G01*
G75*
D01*
G02X56000Y151683I-5000J3317*
G01*
G75*
D01*
G02X46000Y151683I-5000J3317*
G01*
G75*
D01*
G02X36000Y151683I-5000J3317*
G01*
G75*
D01*
G02X26000Y151683I-5000J3317*
G01*
G75*
D01*
G02X26000Y158317I-5000J3317*
G01*
G75*
D01*
G02X36000Y158317I5000J-3317*
G01*
G75*
D01*
G02X46000Y158317I5000J-3317*
G01*
G75*
D01*
G02X56000Y158317I5000J-3317*
G01*
G75*
D01*
G02X66000Y158317I5000J-3317*
G01*
G75*
D01*
G02X76000Y158317I5000J-3317*
G01*
G75*
D01*
G02X86000Y158317I5000J-3317*
G01*
G75*
D01*
G02X96000Y158317I5000J-3317*
G01*
G75*
D01*
G02X105571Y151113I4998J-3320*
G01*
X105571Y151113D01*
X114088Y142596D01*
G75*
D01*
G02X139142Y135019I15912J7404*
G01*
X139142Y135019D01*
X169000Y135019D01*
G74*
D01*
G02X171845Y133839I0J4019*
G01*
X171845Y133839D01*
X176411Y129273D01*
G74*
D01*
G02X178488Y127843I1411J4272*
G01*
X178488Y127843D01*
X178488Y170441D01*
G75*
D01*
G02X178474Y170705I2511J266*
G01*
D02*
G37*
%LPC*%
G36*
X91455Y59551D02*
X91455Y59551D01*
X91962Y60058D01*
X94906Y63002D01*
G74*
D01*
G02X93002Y64906I94J1998*
G01*
X93002Y64906D01*
X91225Y63129D01*
G75*
D01*
G02X80000Y60847I-6225J1871*
G01*
G75*
D01*
G02X70000Y60847I-5000J4152*
G01*
G75*
D01*
G02X60000Y60847I-5000J4152*
G01*
G75*
D01*
G02X60000Y69153I-4999J4153*
G01*
G75*
D01*
G02X70000Y69153I5000J-4152*
G01*
G75*
D01*
G02X80000Y69153I5000J-4152*
G01*
G75*
D01*
G02X91225Y66871I5001J-4151*
G01*
X91225Y66871D01*
X91962Y66134D01*
X93002Y65094D01*
G74*
D01*
G02X94906Y66998I1998J94*
G01*
X94906Y66998D01*
X91455Y70449D01*
G75*
D01*
G02X98545Y70449I3545J-5448*
G01*
X98545Y70449D01*
X95094Y66998D01*
G74*
D01*
G02X96998Y65094I94J1998*
G01*
X96998Y65094D01*
X98775Y66871D01*
G75*
D01*
G02X110000Y69153I6225J-1871*
G01*
G75*
D01*
G02X118095Y70716I5000J-4152*
G01*
G75*
D01*
G02X118095Y79284I13904J4284*
G01*
G75*
D01*
G02X110000Y80847I-3095J5716*
G01*
G75*
D01*
G02X100000Y80847I-5000J4152*
G01*
G75*
D01*
G02X90000Y80847I-5000J4152*
G01*
G75*
D01*
G02X80000Y80847I-5000J4152*
G01*
G75*
D01*
G02X70000Y80847I-5000J4152*
G01*
G75*
D01*
G02X60000Y80847I-5000J4152*
G01*
G75*
D01*
G02X60000Y89153I-4999J4153*
G01*
G75*
D01*
G02X70000Y89153I5000J-4152*
G01*
G74*
D01*
G02X71184Y90262I5000J4152*
G01*
G74*
D01*
G02X72158Y91842I3816J1262*
G01*
X72158Y91842D01*
X78158Y97842D01*
G74*
D01*
G02X79796Y98835I2842J2841*
G01*
G74*
D01*
G02X75000Y101387I203J6165*
G01*
G75*
D01*
G02X65000Y101387I-5000J3612*
G01*
G75*
D01*
G02X55000Y101387I-5000J3612*
G01*
G75*
D01*
G02X45000Y101387I-5000J3612*
G01*
G75*
D01*
G02X35000Y101387I-5000J3612*
G01*
G75*
D01*
G02X25000Y101387I-5000J3612*
G01*
G75*
D01*
G02X25000Y108613I-4999J3613*
G01*
G75*
D01*
G02X35000Y108613I5000J-3612*
G01*
G75*
D01*
G02X45000Y108613I5000J-3612*
G01*
G75*
D01*
G02X55000Y108613I5000J-3612*
G01*
G75*
D01*
G02X65000Y108613I5000J-3612*
G01*
G75*
D01*
G02X75000Y108613I5000J-3612*
G01*
G75*
D01*
G02X85000Y108613I5000J-3612*
G01*
G75*
D01*
G02X95000Y108613I5000J-3612*
G01*
G75*
D01*
G02X105000Y108613I5000J-3612*
G01*
G75*
D01*
G02X115000Y108613I5000J-3612*
G01*
G75*
D01*
G02X125000Y108613I5000J-3612*
G01*
G75*
D01*
G02X135000Y108613I5000J-3612*
G01*
G75*
D01*
G02X145000Y108613I5000J-3612*
G01*
G75*
D01*
G02X153613Y100000I4997J-3616*
G01*
G75*
D01*
G02X153613Y90000I-3612J-5000*
G01*
G75*
D01*
G02X153613Y80000I-3612J-5000*
G01*
G75*
D01*
G02X153613Y70000I-3612J-5000*
G01*
G75*
D01*
G02X153613Y60000I-3612J-5000*
G01*
G75*
D01*
G02X153613Y50000I-3612J-5000*
G01*
G75*
D01*
G02X145000Y41387I-3616J-4997*
G01*
G75*
D01*
G02X135000Y41387I-5000J3612*
G01*
G75*
D01*
G02X125000Y41387I-5000J3612*
G01*
G75*
D01*
G02X115000Y41387I-5000J3612*
G01*
G75*
D01*
G02X105000Y41387I-5000J3612*
G01*
G75*
D01*
G02X95000Y41387I-5000J3612*
G01*
G75*
D01*
G02X85000Y41387I-5000J3612*
G01*
G75*
D01*
G02X75000Y41387I-5000J3612*
G01*
G75*
D01*
G02X65000Y41387I-5000J3612*
G01*
G75*
D01*
G02X55000Y41387I-5000J3612*
G01*
G75*
D01*
G02X45000Y41387I-5000J3612*
G01*
G75*
D01*
G02X35000Y41387I-5000J3612*
G01*
G75*
D01*
G02X24406Y42401I-5000J3612*
G01*
X24406Y42401D01*
X21962Y44845D01*
G74*
D01*
G02X20155Y43038I1962J155*
G01*
X20155Y43038D01*
X23364Y39829D01*
G75*
D01*
G02X16636Y39829I-3364J5170*
G01*
X16636Y39829D01*
X19845Y43038D01*
G74*
D01*
G02X18038Y44845I155J1962*
G01*
X18038Y44845D01*
X14829Y41636D01*
G75*
D01*
G02X14829Y48364I5170J3364*
G01*
X14829Y48364D01*
X18038Y45155D01*
G74*
D01*
G02X19845Y46962I1962J155*
G01*
X19845Y46962D01*
X16636Y50171D01*
G75*
D01*
G02X23364Y50171I3364J-5170*
G01*
X23364Y50171D01*
X20155Y46962D01*
G74*
D01*
G02X21962Y45155I155J1962*
G01*
X21962Y45155D01*
X24406Y47599D01*
G75*
D01*
G02X35000Y48613I5594J-2598*
G01*
G75*
D01*
G02X45000Y48613I5000J-3612*
G01*
G75*
D01*
G02X55000Y48613I5000J-3612*
G01*
G75*
D01*
G02X65000Y48613I5000J-3612*
G01*
G75*
D01*
G02X75000Y48613I5000J-3612*
G01*
G75*
D01*
G02X85000Y48613I5000J-3612*
G01*
G75*
D01*
G02X95000Y48613I5000J-3612*
G01*
G75*
D01*
G02X105000Y48613I5000J-3612*
G01*
G75*
D01*
G02X115000Y48613I5000J-3612*
G01*
G75*
D01*
G02X125000Y48613I5000J-3612*
G01*
G75*
D01*
G02X135000Y48613I5000J-3612*
G01*
G75*
D01*
G02X145000Y48613I5000J-3612*
G01*
G74*
D01*
G02X146387Y50000I4999J3612*
G01*
G75*
D01*
G02X146387Y60000I3612J5000*
G01*
G75*
D01*
G02X144178Y67037I3613J4999*
G01*
G75*
D01*
G02X121500Y64928I-12178J7963*
G01*
G75*
D01*
G02X110000Y60847I-6500J72*
G01*
G75*
D01*
G02X98775Y63129I-5001J4151*
G01*
X98775Y63129D01*
X96998Y64906D01*
G74*
D01*
G02X95094Y63002I1998J94*
G01*
X95094Y63002D01*
X98545Y59551D01*
G75*
D01*
G02X91455Y59551I-3545J5448*
G01*
D02*
G37*
G36*
X91962Y17408D02*
G75*
D01*
G02X91962Y17408I7038J2592*
G01*
D02*
G37*
%LPD*%
G36*
X97495Y92161D02*
G74*
D01*
G02X96351Y91358I2846J2838*
G01*
G74*
D01*
G02X100000Y89153I1351J6357*
G01*
G75*
D01*
G02X110000Y89153I5000J-4152*
G01*
G75*
D01*
G02X121500Y85072I5001J-4150*
G01*
G75*
D01*
G02X144178Y82963I10501J-10070*
G01*
G75*
D01*
G02X146387Y90000I5822J2038*
G01*
G75*
D01*
G02X146387Y100000I3612J5000*
G01*
G74*
D01*
G02X145000Y101387I3612J4999*
G01*
G75*
D01*
G02X135000Y101387I-5000J3612*
G01*
G75*
D01*
G02X125000Y101387I-5000J3612*
G01*
G75*
D01*
G02X115000Y101387I-5000J3612*
G01*
G75*
D01*
G02X105000Y101387I-5000J3612*
G01*
G74*
D01*
G02X104019Y100321I4998J3615*
G01*
G74*
D01*
G02X102839Y97505I4019J29*
G01*
X102839Y97505D01*
X97495Y92161D01*
D02*
G37*
G36*
X111158Y121158D02*
X111158Y121158D01*
X91962Y140354D01*
X88158Y144158D01*
G75*
D01*
G02X86981Y147004I2842J2842*
G01*
X86981Y147004D01*
X86981Y150545D01*
G74*
D01*
G02X86000Y151683I4018J4455*
G01*
G74*
D01*
G02X85019Y150545I4999J3318*
G01*
X85019Y150545D01*
X85019Y143665D01*
X91962Y136722D01*
X108665Y120019D01*
X113444Y120019D01*
G74*
D01*
G02X111158Y121158I556J3980*
G01*
D02*
G37*
G36*
X15000Y20000D02*
G75*
D01*
G02X15000Y20000I15000J0*
G01*
D02*
G37*
%LPC*%
G36*
X18950Y20000D02*
G75*
D01*
G03X18950Y20000I11050J0*
G01*
D02*
G37*
%LPD*%
G36*
X115000Y20000D02*
G75*
D01*
G02X115000Y20000I15000J0*
G01*
D02*
G37*
%LPC*%
G36*
X118950Y20000D02*
G75*
D01*
G03X118950Y20000I11050J0*
G01*
D02*
G37*
%LPD*%
G36*
X115000Y150000D02*
G75*
D01*
G02X115000Y150000I15000J0*
G01*
D02*
G37*
%LPC*%
G36*
X118950Y150000D02*
G75*
D01*
G03X118950Y150000I11050J0*
G01*
D02*
G37*
%LPD*%
G36*
X120000Y75000D02*
G75*
D01*
G02X120000Y75000I12000J0*
G01*
D02*
G37*
G36*
X117304Y128019D02*
X117304Y128019D01*
X115665Y128019D01*
X95019Y148665D01*
X95019Y150545D01*
G74*
D01*
G03X96000Y151683I4018J4455*
G01*
G74*
D01*
G03X96981Y150545I4999J3318*
G01*
X96981Y150545D01*
X96981Y150005D01*
G75*
D01*
G03X98158Y147158I4019J-5*
G01*
X98158Y147158D01*
X117158Y128158D01*
G74*
D01*
G03X117304Y128019I2843J2840*
G01*
D02*
G37*
G54D11*
X18950Y20000D02*
G75*
D01*
G03X18950Y20000I11050J0*
G01*
X15000Y20000D02*
G75*
D01*
G02X15000Y20000I15000J0*
G01*
X118950Y20000D02*
G75*
D01*
G03X118950Y20000I11050J0*
G01*
X115000Y20000D02*
G75*
D01*
G02X115000Y20000I15000J0*
G01*
X118950Y150000D02*
G75*
D01*
G03X118950Y150000I11050J0*
G01*
X115000Y150000D02*
G75*
D01*
G02X115000Y150000I15000J0*
G01*
X120000Y75000D02*
G75*
D01*
G02X120000Y75000I12000J0*
G01*
G54D12*
X91455Y59551D02*
X91962Y60058D01*
X94906Y63002D01*
G74*
D01*
G02X93002Y64906I94J1998*
G01*
X91225Y63129D01*
G75*
D01*
G02X80000Y60847I-6225J1871*
G01*
G75*
D01*
G02X70000Y60847I-5000J4152*
G01*
G75*
D01*
G02X60000Y60847I-5000J4152*
G01*
G75*
D01*
G02X60000Y69153I-4999J4153*
G01*
G75*
D01*
G02X70000Y69153I5000J-4152*
G01*
G75*
D01*
G02X80000Y69153I5000J-4152*
G01*
G75*
D01*
G02X91225Y66871I5001J-4151*
G01*
X91962Y66134D01*
X93002Y65094D01*
G74*
D01*
G02X94906Y66998I1998J94*
G01*
X91455Y70449D01*
G75*
D01*
G02X98545Y70449I3545J-5448*
G01*
X95094Y66998D01*
G74*
D01*
G02X96998Y65094I94J1998*
G01*
X98775Y66871D01*
G75*
D01*
G02X110000Y69153I6225J-1871*
G01*
G75*
D01*
G02X118095Y70716I5000J-4152*
G01*
G75*
D01*
G02X118095Y79284I13904J4284*
G01*
G75*
D01*
G02X110000Y80847I-3095J5716*
G01*
G75*
D01*
G02X100000Y80847I-5000J4152*
G01*
G75*
D01*
G02X90000Y80847I-5000J4152*
G01*
G75*
D01*
G02X80000Y80847I-5000J4152*
G01*
G75*
D01*
G02X70000Y80847I-5000J4152*
G01*
G75*
D01*
G02X60000Y80847I-5000J4152*
G01*
G75*
D01*
G02X60000Y89153I-4999J4153*
G01*
G75*
D01*
G02X70000Y89153I5000J-4152*
G01*
G74*
D01*
G02X71184Y90262I5000J4152*
G01*
G74*
D01*
G02X72158Y91842I3816J1262*
G01*
X78158Y97842D01*
G74*
D01*
G02X79796Y98835I2842J2841*
G01*
G74*
D01*
G02X75000Y101387I203J6165*
G01*
G75*
D01*
G02X65000Y101387I-5000J3612*
G01*
G75*
D01*
G02X55000Y101387I-5000J3612*
G01*
G75*
D01*
G02X45000Y101387I-5000J3612*
G01*
G75*
D01*
G02X35000Y101387I-5000J3612*
G01*
G75*
D01*
G02X25000Y101387I-5000J3612*
G01*
G75*
D01*
G02X25000Y108613I-4999J3613*
G01*
G75*
D01*
G02X35000Y108613I5000J-3612*
G01*
G75*
D01*
G02X45000Y108613I5000J-3612*
G01*
G75*
D01*
G02X55000Y108613I5000J-3612*
G01*
G75*
D01*
G02X65000Y108613I5000J-3612*
G01*
G75*
D01*
G02X75000Y108613I5000J-3612*
G01*
G75*
D01*
G02X85000Y108613I5000J-3612*
G01*
G75*
D01*
G02X95000Y108613I5000J-3612*
G01*
G75*
D01*
G02X105000Y108613I5000J-3612*
G01*
G75*
D01*
G02X115000Y108613I5000J-3612*
G01*
G75*
D01*
G02X125000Y108613I5000J-3612*
G01*
G75*
D01*
G02X135000Y108613I5000J-3612*
G01*
G75*
D01*
G02X145000Y108613I5000J-3612*
G01*
G75*
D01*
G02X153613Y100000I4997J-3616*
G01*
G75*
D01*
G02X153613Y90000I-3612J-5000*
G01*
G75*
D01*
G02X153613Y80000I-3612J-5000*
G01*
G75*
D01*
G02X153613Y70000I-3612J-5000*
G01*
G75*
D01*
G02X153613Y60000I-3612J-5000*
G01*
G75*
D01*
G02X153613Y50000I-3612J-5000*
G01*
G75*
D01*
G02X145000Y41387I-3616J-4997*
G01*
G75*
D01*
G02X135000Y41387I-5000J3612*
G01*
G75*
D01*
G02X125000Y41387I-5000J3612*
G01*
G75*
D01*
G02X115000Y41387I-5000J3612*
G01*
G75*
D01*
G02X105000Y41387I-5000J3612*
G01*
G75*
D01*
G02X95000Y41387I-5000J3612*
G01*
G75*
D01*
G02X85000Y41387I-5000J3612*
G01*
G75*
D01*
G02X75000Y41387I-5000J3612*
G01*
G75*
D01*
G02X65000Y41387I-5000J3612*
G01*
G75*
D01*
G02X55000Y41387I-5000J3612*
G01*
G75*
D01*
G02X45000Y41387I-5000J3612*
G01*
G75*
D01*
G02X35000Y41387I-5000J3612*
G01*
G75*
D01*
G02X24406Y42401I-5000J3612*
G01*
X21962Y44845D01*
G74*
D01*
G02X20155Y43038I1962J155*
G01*
X23364Y39829D01*
G75*
D01*
G02X16636Y39829I-3364J5170*
G01*
X19845Y43038D01*
G74*
D01*
G02X18038Y44845I155J1962*
G01*
X14829Y41636D01*
G75*
D01*
G02X14829Y48364I5170J3364*
G01*
X18038Y45155D01*
G74*
D01*
G02X19845Y46962I1962J155*
G01*
X16636Y50171D01*
G75*
D01*
G02X23364Y50171I3364J-5170*
G01*
X20155Y46962D01*
G74*
D01*
G02X21962Y45155I155J1962*
G01*
X24406Y47599D01*
G75*
D01*
G02X35000Y48613I5594J-2598*
G01*
G75*
D01*
G02X45000Y48613I5000J-3612*
G01*
G75*
D01*
G02X55000Y48613I5000J-3612*
G01*
G75*
D01*
G02X65000Y48613I5000J-3612*
G01*
G75*
D01*
G02X75000Y48613I5000J-3612*
G01*
G75*
D01*
G02X85000Y48613I5000J-3612*
G01*
G75*
D01*
G02X95000Y48613I5000J-3612*
G01*
G75*
D01*
G02X105000Y48613I5000J-3612*
G01*
G75*
D01*
G02X115000Y48613I5000J-3612*
G01*
G75*
D01*
G02X125000Y48613I5000J-3612*
G01*
G75*
D01*
G02X135000Y48613I5000J-3612*
G01*
G75*
D01*
G02X145000Y48613I5000J-3612*
G01*
G74*
D01*
G02X146387Y50000I4999J3612*
G01*
G75*
D01*
G02X146387Y60000I3612J5000*
G01*
G75*
D01*
G02X144178Y67037I3613J4999*
G01*
G75*
D01*
G02X121500Y64928I-12178J7963*
G01*
G75*
D01*
G02X110000Y60847I-6500J72*
G01*
G75*
D01*
G02X98775Y63129I-5001J4151*
G01*
X96998Y64906D01*
G74*
D01*
G02X95094Y63002I1998J94*
G01*
X98545Y59551D01*
G75*
D01*
G02X91455Y59551I-3545J5448*
G01*
X91962Y17408D02*
G75*
D01*
G02X91962Y17408I7038J2592*
G01*
X178474Y170705D02*
G74*
D01*
G03X172345Y187016I24769J0*
G01*
G75*
D01*
G02X167798Y191074I-10345J-7015*
G01*
G74*
D01*
G03X153705Y195474I14093J20369*
G01*
G75*
D01*
G02X153441Y195488I2J2526*
G01*
X91196Y195488D01*
X91962Y194722D01*
X93839Y192845D01*
G74*
D01*
G02X95019Y190000I2839J2845*
G01*
X95019Y189455D01*
G74*
D01*
G02X95135Y189347I4029J4444*
G01*
G75*
D01*
G02X97500Y191012I2365J-847*
G01*
X104500Y191012D01*
G74*
D01*
G02X107012Y188500I0J2512*
G01*
X107012Y181500D01*
G75*
D01*
G02X104500Y178988I-2512J0*
G01*
X97500Y178988D01*
G75*
D01*
G02X95135Y180653I0J2512*
G01*
G75*
D01*
G02X86000Y181683I-4136J4346*
G01*
G75*
D01*
G02X76000Y181683I-5000J3317*
G01*
G75*
D01*
G02X66000Y181683I-5000J3317*
G01*
G75*
D01*
G02X56000Y181683I-5000J3317*
G01*
G75*
D01*
G02X46000Y181683I-5000J3317*
G01*
G75*
D01*
G02X36000Y181683I-5000J3317*
G01*
G75*
D01*
G02X25871Y181886I-5000J3317*
G01*
X22987Y184771D01*
G74*
D01*
G02X21229Y183013I1987J229*
G01*
X24272Y179971D01*
G75*
D01*
G02X17728Y179971I-3272J5028*
G01*
X20771Y183013D01*
G74*
D01*
G02X19013Y184771I229J1987*
G01*
X15971Y181728D01*
G75*
D01*
G02X15971Y188272I5028J3272*
G01*
X19013Y185229D01*
G74*
D01*
G02X20771Y186987I1987J229*
G01*
X17728Y190029D01*
G75*
D01*
G02X24272Y190029I3272J-5028*
G01*
X21229Y186987D01*
G74*
D01*
G02X22987Y185229I229J1987*
G01*
X25871Y188114D01*
G75*
D01*
G02X36000Y188317I5129J-3114*
G01*
G74*
D01*
G02X36989Y189462I4999J3318*
G01*
G74*
D01*
G02X38158Y192042I4010J262*
G01*
X41604Y195488D01*
X27559Y195488D01*
G74*
D01*
G02X27295Y195474I266J2511*
G01*
G75*
D01*
G03X2526Y170705I0J-24769*
G01*
G75*
D01*
G02X2512Y170441I-2526J2*
G01*
X2512Y27559D01*
G74*
D01*
G02X2526Y27295I2511J266*
G01*
G75*
D01*
G03X27295Y2526I24769J0*
G01*
G74*
D01*
G02X27559Y2512I2J2526*
G01*
X28525Y2512D01*
G75*
D01*
G02X31475Y2512I1475J17488*
G01*
X128525Y2512D01*
G75*
D01*
G02X131475Y2512I1475J17488*
G01*
X153441Y2512D01*
G75*
D01*
G02X153705Y2526I266J-2511*
G01*
G75*
D01*
G03X178474Y27295I0J24769*
G01*
G74*
D01*
G02X178488Y27559I2526J2*
G01*
X178488Y122157D01*
G75*
D01*
G02X172492Y121264I-3488J2842*
G01*
G75*
D01*
G02X163727Y119589I-4491J-270*
G01*
X163335Y119981D01*
X162099Y119981D01*
G75*
D01*
G02X157976Y111981I-2075J-3993*
G01*
X107004Y111981D01*
G75*
D01*
G02X104158Y113158I-4J4019*
G01*
X91962Y125354D01*
X78158Y139158D01*
G75*
D01*
G02X76981Y142005I2842J2842*
G01*
X76981Y150545D01*
G74*
D01*
G02X76000Y151683I4018J4455*
G01*
G75*
D01*
G02X66000Y151683I-5000J3317*
G01*
G75*
D01*
G02X56000Y151683I-5000J3317*
G01*
G75*
D01*
G02X46000Y151683I-5000J3317*
G01*
G75*
D01*
G02X36000Y151683I-5000J3317*
G01*
G75*
D01*
G02X26000Y151683I-5000J3317*
G01*
G75*
D01*
G02X26000Y158317I-5000J3317*
G01*
G75*
D01*
G02X36000Y158317I5000J-3317*
G01*
G75*
D01*
G02X46000Y158317I5000J-3317*
G01*
G75*
D01*
G02X56000Y158317I5000J-3317*
G01*
G75*
D01*
G02X66000Y158317I5000J-3317*
G01*
G75*
D01*
G02X76000Y158317I5000J-3317*
G01*
G75*
D01*
G02X86000Y158317I5000J-3317*
G01*
G75*
D01*
G02X96000Y158317I5000J-3317*
G01*
G75*
D01*
G02X105571Y151113I4998J-3320*
G01*
X114088Y142596D01*
G75*
D01*
G02X139142Y135019I15912J7404*
G01*
X169000Y135019D01*
G74*
D01*
G02X171845Y133839I0J4019*
G01*
X176411Y129273D01*
G74*
D01*
G02X178488Y127843I1411J4272*
G01*
X178488Y170441D01*
G75*
D01*
G02X178474Y170705I2511J266*
G01*
X97495Y92161D02*
G74*
D01*
G02X96351Y91358I2846J2838*
G01*
G74*
D01*
G02X100000Y89153I1351J6357*
G01*
G75*
D01*
G02X110000Y89153I5000J-4152*
G01*
G75*
D01*
G02X121500Y85072I5001J-4150*
G01*
G75*
D01*
G02X144178Y82963I10501J-10070*
G01*
G75*
D01*
G02X146387Y90000I5822J2038*
G01*
G75*
D01*
G02X146387Y100000I3612J5000*
G01*
G74*
D01*
G02X145000Y101387I3612J4999*
G01*
G75*
D01*
G02X135000Y101387I-5000J3612*
G01*
G75*
D01*
G02X125000Y101387I-5000J3612*
G01*
G75*
D01*
G02X115000Y101387I-5000J3612*
G01*
G75*
D01*
G02X105000Y101387I-5000J3612*
G01*
G74*
D01*
G02X104019Y100321I4998J3615*
G01*
G74*
D01*
G02X102839Y97505I4019J29*
G01*
X97495Y92161D01*
X111158Y121158D02*
X91962Y140354D01*
X88158Y144158D01*
G75*
D01*
G02X86981Y147004I2842J2842*
G01*
X86981Y150545D01*
G74*
D01*
G02X86000Y151683I4018J4455*
G01*
G74*
D01*
G02X85019Y150545I4999J3318*
G01*
X85019Y143665D01*
X91962Y136722D01*
X108665Y120019D01*
X113444Y120019D01*
G74*
D01*
G02X111158Y121158I556J3980*
G01*
X117304Y128019D02*
X115665Y128019D01*
X95019Y148665D01*
X95019Y150545D01*
G74*
D01*
G03X96000Y151683I4018J4455*
G01*
G74*
D01*
G03X96981Y150545I4999J3318*
G01*
X96981Y150005D01*
G75*
D01*
G03X98158Y147158I4019J-5*
G01*
X117158Y128158D01*
G74*
D01*
G03X117304Y128019I2843J2840*
G01*
G54D13*
X91000Y190000D02*
X91000Y185000D01*
X41000Y185000D02*
X41000Y189200D01*
X45700Y193900D02*
X87100Y193900D01*
X91000Y190000D01*
X41000Y189200D02*
X45700Y193900D01*
X101000Y155000D02*
X101000Y150000D01*
X120000Y131000D01*
X169000Y131000D01*
X175000Y125000D01*
X91000Y155000D02*
X91000Y147000D01*
X114000Y124000D01*
X81000Y155000D02*
X81000Y142000D01*
X107000Y116000D01*
X160000Y116000D01*
X114000Y124000D02*
X165000Y124000D01*
X168000Y121000D01*
X75000Y85000D02*
X75000Y89000D01*
X81000Y95000D01*
X94650Y95000D02*
X100000Y100350D01*
X81000Y95000D02*
X94650Y95000D01*
X100000Y100350D02*
X100000Y105000D01*
G54D14*
X55000Y65000D03*
X65000Y65000D03*
X85000Y65000D03*
X75000Y65000D03*
X105000Y65000D03*
X115000Y65000D03*
X95000Y65000D03*
X65000Y85000D03*
X55000Y85000D03*
X115000Y85000D03*
X105000Y85000D03*
X95000Y85000D03*
X85000Y85000D03*
X75000Y85000D03*
G54D15*
X175000Y125000D03*
X160000Y116000D03*
X168000Y121000D03*
G54D16*
X30000Y45000D03*
X50000Y45000D03*
X60000Y45000D03*
X70000Y45000D03*
X40000Y45000D03*
X80000Y45000D03*
X90000Y45000D03*
X100000Y45000D03*
X110000Y45000D03*
X120000Y45000D03*
X130000Y45000D03*
X140000Y45000D03*
X20000Y105000D03*
X30000Y105000D03*
X40000Y105000D03*
X50000Y105000D03*
X60000Y105000D03*
X70000Y105000D03*
X80000Y105000D03*
X90000Y105000D03*
X100000Y105000D03*
X110000Y105000D03*
X120000Y105000D03*
X130000Y105000D03*
X140000Y105000D03*
X150000Y105000D03*
X20000Y45000D03*
X150000Y55000D03*
X150000Y65000D03*
X150000Y45000D03*
X150000Y75000D03*
X150000Y85000D03*
X150000Y95000D03*
G54D17*
X99000Y20000D03*
G54D18*
X21000Y155000D03*
X31000Y155000D03*
X41000Y155000D03*
X51000Y155000D03*
X61000Y155000D03*
X71000Y155000D03*
X81000Y155000D03*
X91000Y155000D03*
X101000Y155000D03*
X21000Y185000D03*
X31000Y185000D03*
X41000Y185000D03*
X51000Y185000D03*
X61000Y185000D03*
X71000Y185000D03*
X81000Y185000D03*
X91000Y185000D03*
G54D19*
X101000Y185000D03*

M00*
