G04 Generated by Ultiboard 12.0 *
%FSLAX25Y25*%
%MOIN*%

%ADD10C,0.00001*%
%ADD11C,0.00005*%
%ADD12C,0.03000*%
%ADD13C,0.04000*%
%ADD14C,0.21000*%
%ADD15O,0.04000X0.07000*%
%ADD16C,0.08000*%


G04 ColorRGB 00FF00 for the following layer *
%LNCopper Top*%
%LPD*%
G54D10*
G36*
X1007Y54000D02*
X1007Y54000D01*
X1007Y46000D01*
X10000Y46000D01*
X10000Y54000D01*
X1007Y54000D01*
D02*
G37*
G36*
X1007Y64000D02*
X1007Y64000D01*
X1007Y56000D01*
X10000Y56000D01*
X10000Y64000D01*
X1007Y64000D01*
D02*
G37*
G36*
X1007Y44000D02*
X1007Y44000D01*
X1007Y36000D01*
X10000Y36000D01*
X10000Y44000D01*
X1007Y44000D01*
D02*
G37*
G36*
X1007Y34000D02*
X1007Y34000D01*
X1007Y26000D01*
X10000Y26000D01*
X10000Y34000D01*
X1007Y34000D01*
D02*
G37*
G36*
X88993Y64000D02*
X88993Y64000D01*
X88993Y56000D01*
X80000Y56000D01*
X80000Y64000D01*
X88993Y64000D01*
D02*
G37*
G36*
X88993Y54000D02*
X88993Y54000D01*
X88993Y46000D01*
X80000Y46000D01*
X80000Y54000D01*
X88993Y54000D01*
D02*
G37*
G36*
X88993Y44000D02*
X88993Y44000D01*
X88993Y36000D01*
X80000Y36000D01*
X80000Y44000D01*
X88993Y44000D01*
D02*
G37*
G36*
X88993Y34000D02*
X88993Y34000D01*
X88993Y26000D01*
X80000Y26000D01*
X80000Y34000D01*
X88993Y34000D01*
D02*
G37*
G54D11*
X1007Y54000D02*
X1007Y46000D01*
X10000Y46000D01*
X10000Y54000D01*
X1007Y54000D01*
X1007Y64000D02*
X1007Y56000D01*
X10000Y56000D01*
X10000Y64000D01*
X1007Y64000D01*
X1007Y44000D02*
X1007Y36000D01*
X10000Y36000D01*
X10000Y44000D01*
X1007Y44000D01*
X1007Y34000D02*
X1007Y26000D01*
X10000Y26000D01*
X10000Y34000D01*
X1007Y34000D01*
X88993Y64000D02*
X88993Y56000D01*
X80000Y56000D01*
X80000Y64000D01*
X88993Y64000D01*
X88993Y54000D02*
X88993Y46000D01*
X80000Y46000D01*
X80000Y54000D01*
X88993Y54000D01*
X88993Y44000D02*
X88993Y36000D01*
X80000Y36000D01*
X80000Y44000D01*
X88993Y44000D01*
X88993Y34000D02*
X88993Y26000D01*
X80000Y26000D01*
X80000Y34000D01*
X88993Y34000D01*
G54D12*
X17550Y57550D02*
X10000Y50000D01*
X36621Y32500D02*
X37500Y33379D01*
X37500Y34000D02*
X37500Y33379D01*
X10000Y40000D02*
X17500Y32500D01*
X36621Y32500D02*
X17500Y32500D01*
X45000Y34000D02*
X45000Y36000D01*
X23450Y57550D01*
X17550Y57550D01*
X56000Y30000D02*
X52500Y33500D01*
X56000Y60000D02*
X52500Y56500D01*
X80000Y40000D02*
X72000Y32000D01*
X65000Y32000D01*
X55000Y42000D01*
X55000Y49000D02*
X64000Y58000D01*
X72000Y58000D01*
X80000Y50000D01*
X45000Y54050D02*
X50050Y49000D01*
X55000Y49000D01*
X45000Y56000D02*
X45000Y54050D01*
X48000Y42000D02*
X37500Y52500D01*
X37500Y56000D01*
X55000Y42000D02*
X48000Y42000D01*
G54D13*
X56000Y60000D03*
X56000Y30000D03*
G54D14*
X45000Y13000D03*
X44000Y77000D03*
G54D15*
X37500Y34000D03*
X45000Y34000D03*
X52500Y34000D03*
X37500Y56000D03*
X45000Y56000D03*
X52500Y56000D03*
G54D16*
X70000Y40000D03*
X80000Y40000D03*
X70000Y50000D03*
X80000Y50000D03*
X80000Y30000D03*
X80000Y60000D03*
X10000Y40000D03*
X20000Y40000D03*
X10000Y50000D03*
X20000Y50000D03*
X10000Y30000D03*
X10000Y60000D03*

M00*
